EESchema Schematic File Version 2
LIBS:opentherm-rescue
LIBS:power
LIBS:device
LIBS:transistors
LIBS:conn
LIBS:linear
LIBS:regul
LIBS:74xx
LIBS:cmos4000
LIBS:adc-dac
LIBS:memory
LIBS:xilinx
LIBS:microcontrollers
LIBS:dsp
LIBS:microchip
LIBS:analog_switches
LIBS:motorola
LIBS:texas
LIBS:intel
LIBS:audio
LIBS:interface
LIBS:digital-audio
LIBS:philips
LIBS:display
LIBS:cypress
LIBS:siliconi
LIBS:opto
LIBS:atmel
LIBS:contrib
LIBS:valves
LIBS:ft232rl
LIBS:ch340g
LIBS:opentherm-cache
EELAYER 25 0
EELAYER END
$Descr A3 16535 11693
encoding utf-8
Sheet 1 1
Title "OpenTherm Master USB Dongle"
Date "2016-12-15"
Rev "1"
Comp "Randomdata"
Comment1 "Themba"
Comment2 ""
Comment3 ""
Comment4 ""
$EndDescr
$Comp
L ATMEGA328-A IC1
U 1 1 5851A573
P 3900 7750
F 0 "IC1" H 3150 9000 50  0000 L BNN
F 1 "ATMEGA328-A" H 4300 6350 50  0000 L BNN
F 2 "tqfp32-handsoldering:QFP_32_HandSoldering" H 3950 9150 50  0000 C CIN
F 3 "" H 3900 7750 50  0000 C CNN
	1    3900 7750
	1    0    0    -1  
$EndComp
$Comp
L CONN_01X02 P1
U 1 1 5851B2E4
P 1800 1700
F 0 "P1" H 1800 1850 50  0000 C CNN
F 1 "BOILER_INTERFACE" V 1900 1700 50  0000 C CNN
F 2 "Connect:bornier2" H 1800 1700 50  0001 C CNN
F 3 "" H 1800 1700 50  0000 C CNN
	1    1800 1700
	-1   0    0    1   
$EndComp
$Comp
L ZENER D2
U 1 1 5851B5A5
P 3800 2950
F 0 "D2" H 3800 3050 50  0000 C CNN
F 1 "4V7" H 3800 2850 50  0000 C CNN
F 2 "Diodes_SMD:D_SOD-323_HandSoldering" H 3800 2950 50  0001 C CNN
F 3 "" H 3800 2950 50  0000 C CNN
	1    3800 2950
	0    1    1    0   
$EndComp
$Comp
L ZENER D3
U 1 1 5851B65E
P 4850 3300
F 0 "D3" H 4850 3400 50  0000 C CNN
F 1 "15V" H 4850 3200 50  0000 C CNN
F 2 "Diodes_SMD:D_SOD-323_HandSoldering" H 4850 3300 50  0001 C CNN
F 3 "" H 4850 3300 50  0000 C CNN
	1    4850 3300
	0    1    1    0   
$EndComp
$Comp
L ZENER D4
U 1 1 5851B6B6
P 5400 3300
F 0 "D4" H 5400 3400 50  0000 C CNN
F 1 "4V3" H 5400 3200 50  0000 C CNN
F 2 "Diodes_SMD:D_SOD-323_HandSoldering" H 5400 3300 50  0001 C CNN
F 3 "" H 5400 3300 50  0000 C CNN
	1    5400 3300
	0    1    1    0   
$EndComp
$Comp
L R R1
U 1 1 5851B919
P 4250 2650
F 0 "R1" V 4330 2650 50  0000 C CNN
F 1 "220" V 4250 2650 50  0000 C CNN
F 2 "Resistors_SMD:R_0805_HandSoldering" V 4180 2650 50  0001 C CNN
F 3 "" H 4250 2650 50  0000 C CNN
	1    4250 2650
	1    0    0    -1  
$EndComp
$Comp
L R R2
U 1 1 5851B95C
P 4250 3300
F 0 "R2" V 4330 3300 50  0000 C CNN
F 1 "100" V 4250 3300 50  0000 C CNN
F 2 "Resistors_SMD:R_0805_HandSoldering" V 4180 3300 50  0001 C CNN
F 3 "" H 4250 3300 50  0000 C CNN
	1    4250 3300
	1    0    0    -1  
$EndComp
$Comp
L R R3
U 1 1 5851B9FC
P 4600 1650
F 0 "R3" V 4680 1650 50  0000 C CNN
F 1 "330" V 4600 1650 50  0000 C CNN
F 2 "Resistors_SMD:R_0805_HandSoldering" V 4530 1650 50  0001 C CNN
F 3 "" H 4600 1650 50  0000 C CNN
	1    4600 1650
	0    1    1    0   
$EndComp
$Comp
L USB_OTG-RESCUE-opentherm P2
U 1 1 5851BE73
P 11700 5600
F 0 "P2" H 12025 5475 50  0000 C CNN
F 1 "USB_OTG" H 11700 5800 50  0000 C CNN
F 2 "usbminitht:USB-MINI-DIP" V 11650 5500 50  0001 C CNN
F 3 "" V 11650 5500 50  0000 C CNN
	1    11700 5600
	0    1    1    0   
$EndComp
$Comp
L GND #PWR01
U 1 1 5851C632
P 11200 5850
F 0 "#PWR01" H 11200 5600 50  0001 C CNN
F 1 "GND" H 11200 5700 50  0000 C CNN
F 2 "" H 11200 5850 50  0000 C CNN
F 3 "" H 11200 5850 50  0000 C CNN
	1    11200 5850
	1    0    0    -1  
$EndComp
$Comp
L VCC #PWR02
U 1 1 5851C92F
P 13750 7000
F 0 "#PWR02" H 13750 6850 50  0001 C CNN
F 1 "VCC" H 13750 7150 50  0000 C CNN
F 2 "" H 13750 7000 50  0000 C CNN
F 3 "" H 13750 7000 50  0000 C CNN
	1    13750 7000
	1    0    0    -1  
$EndComp
$Comp
L GND #PWR03
U 1 1 5851CEC9
P 11350 7250
F 0 "#PWR03" H 11350 7000 50  0001 C CNN
F 1 "GND" H 11350 7100 50  0000 C CNN
F 2 "" H 11350 7250 50  0000 C CNN
F 3 "" H 11350 7250 50  0000 C CNN
	1    11350 7250
	1    0    0    -1  
$EndComp
$Comp
L C C4
U 1 1 5851D25E
P 13150 3350
F 0 "C4" H 13175 3450 50  0000 L CNN
F 1 "0.1uF" H 13175 3250 50  0000 L CNN
F 2 "Capacitors_SMD:C_0805_HandSoldering" H 13188 3200 50  0001 C CNN
F 3 "" H 13150 3350 50  0000 C CNN
	1    13150 3350
	1    0    0    -1  
$EndComp
$Comp
L CP1 C3
U 1 1 5851D4B9
P 12800 3350
F 0 "C3" H 12825 3450 50  0000 L CNN
F 1 "10uF" H 12825 3250 50  0000 L CNN
F 2 "Capacitors_SMD:C_0805_HandSoldering" H 12800 3350 50  0001 C CNN
F 3 "" H 12800 3350 50  0000 C CNN
	1    12800 3350
	1    0    0    -1  
$EndComp
Wire Wire Line
	12800 3200 12800 3000
Wire Wire Line
	13150 3200 13150 3000
$Comp
L GND #PWR04
U 1 1 5851D5C7
P 13150 3550
F 0 "#PWR04" H 13150 3300 50  0001 C CNN
F 1 "GND" H 13150 3400 50  0000 C CNN
F 2 "" H 13150 3550 50  0000 C CNN
F 3 "" H 13150 3550 50  0000 C CNN
	1    13150 3550
	1    0    0    -1  
$EndComp
$Comp
L GND #PWR05
U 1 1 5851D605
P 12800 3550
F 0 "#PWR05" H 12800 3300 50  0001 C CNN
F 1 "GND" H 12800 3400 50  0000 C CNN
F 2 "" H 12800 3550 50  0000 C CNN
F 3 "" H 12800 3550 50  0000 C CNN
	1    12800 3550
	1    0    0    -1  
$EndComp
Wire Wire Line
	12800 3550 12800 3500
Wire Wire Line
	13150 3550 13150 3500
Text GLabel 12150 7250 0    60   Input ~ 0
RXD
Text GLabel 12150 7350 0    60   Input ~ 0
TXD
Text GLabel 5400 8400 2    60   Input ~ 0
TXD
Text GLabel 5400 8200 2    60   Input ~ 0
RXD
Wire Wire Line
	5400 8200 5200 8200
Wire Wire Line
	5200 8200 5200 8250
Wire Wire Line
	5200 8250 4900 8250
Wire Wire Line
	4900 8350 5200 8350
Wire Wire Line
	5200 8350 5200 8400
Wire Wire Line
	5200 8400 5400 8400
$Comp
L C C6
U 1 1 5851E459
P 14050 7450
F 0 "C6" H 14075 7550 50  0000 L CNN
F 1 "0.1uF" H 14075 7350 50  0000 L CNN
F 2 "Capacitors_SMD:C_0805_HandSoldering" H 14088 7300 50  0001 C CNN
F 3 "" H 14050 7450 50  0000 C CNN
	1    14050 7450
	0    1    1    0   
$EndComp
Text GLabel 14450 7450 2    60   Input ~ 0
RESET
Text GLabel 5400 8050 2    60   Input ~ 0
RESET
Wire Wire Line
	5400 8050 5200 8050
Wire Wire Line
	5200 8050 5200 8100
Wire Wire Line
	5200 8100 4900 8100
Wire Wire Line
	2900 2550 2900 2850
Wire Wire Line
	3550 2250 3550 1650
Wire Wire Line
	4250 1900 4250 1650
Connection ~ 4250 1650
Wire Wire Line
	4250 2300 4250 2500
Wire Wire Line
	4250 2800 4250 3150
Wire Wire Line
	3800 2250 3800 2750
Wire Wire Line
	3800 2400 4250 2400
Connection ~ 4250 2400
Wire Wire Line
	3800 3150 3800 3800
Wire Wire Line
	4250 3450 4250 3800
Wire Wire Line
	4850 3500 4850 3800
Wire Wire Line
	5400 3500 5400 3800
Wire Wire Line
	4550 2100 6000 2100
Wire Wire Line
	6000 1900 5400 1900
Wire Wire Line
	5400 1900 5400 3100
Wire Wire Line
	4850 1500 4850 3100
Connection ~ 4850 2100
Wire Wire Line
	4750 1650 4850 1650
Wire Wire Line
	4250 2950 6000 2950
Connection ~ 4250 2950
$Comp
L GND #PWR06
U 1 1 58520228
P 7050 1950
F 0 "#PWR06" H 7050 1700 50  0001 C CNN
F 1 "GND" H 7050 1800 50  0000 C CNN
F 2 "" H 7050 1950 50  0000 C CNN
F 3 "" H 7050 1950 50  0000 C CNN
	1    7050 1950
	1    0    0    -1  
$EndComp
Wire Wire Line
	6600 1900 7050 1900
Wire Wire Line
	7050 1900 7050 1950
Text GLabel 7100 2600 2    60   Input ~ 0
TO_BOILER
$Comp
L R R4
U 1 1 585203BD
P 6750 2400
F 0 "R4" V 6830 2400 50  0000 C CNN
F 1 "1k5" V 6750 2400 50  0000 C CNN
F 2 "Resistors_SMD:R_0805_HandSoldering" V 6680 2400 50  0001 C CNN
F 3 "" H 6750 2400 50  0000 C CNN
	1    6750 2400
	1    0    0    -1  
$EndComp
Wire Wire Line
	6750 2100 6600 2100
Wire Wire Line
	6750 2250 6750 2100
Wire Wire Line
	6750 2550 6750 2600
Wire Wire Line
	6750 2600 7100 2600
$Comp
L VCC #PWR07
U 1 1 585206F2
P 7050 2950
F 0 "#PWR07" H 7050 2800 50  0001 C CNN
F 1 "VCC" H 7050 3100 50  0000 C CNN
F 2 "" H 7050 2950 50  0000 C CNN
F 3 "" H 7050 2950 50  0000 C CNN
	1    7050 2950
	1    0    0    -1  
$EndComp
Wire Wire Line
	6600 2950 7050 2950
$Comp
L GND #PWR08
U 1 1 58520858
P 7050 3550
F 0 "#PWR08" H 7050 3300 50  0001 C CNN
F 1 "GND" H 7050 3400 50  0000 C CNN
F 2 "" H 7050 3550 50  0000 C CNN
F 3 "" H 7050 3550 50  0000 C CNN
	1    7050 3550
	1    0    0    -1  
$EndComp
$Comp
L R R5
U 1 1 5852092B
P 7050 3350
F 0 "R5" V 7130 3350 50  0000 C CNN
F 1 "330" V 7050 3350 50  0000 C CNN
F 2 "Resistors_SMD:R_0805_HandSoldering" V 6980 3350 50  0001 C CNN
F 3 "" H 7050 3350 50  0000 C CNN
	1    7050 3350
	-1   0    0    1   
$EndComp
Text GLabel 7100 3150 2    60   Input ~ 0
FROM_BOILER
Wire Wire Line
	6600 3150 7100 3150
Wire Wire Line
	7050 3200 7050 3150
Connection ~ 7050 3150
Wire Wire Line
	7050 3500 7050 3550
Wire Wire Line
	3550 1650 4450 1650
Wire Wire Line
	6000 3150 5800 3150
Wire Wire Line
	5800 3150 5800 3800
Wire Wire Line
	3200 2250 3550 2250
Wire Notes Line
	1200 1000 1200 4600
Wire Notes Line
	1200 4600 8300 4600
Wire Notes Line
	8300 4600 8300 1000
Wire Notes Line
	8300 1000 1200 1000
Text Notes 1400 1200 0    60   ~ 0
BOILER INTERFACE
Text Notes 10500 6950 0    60   ~ 0
USB SERIAL
Wire Notes Line
	10300 6700 10300 9350
Wire Notes Line
	10300 9350 15500 9350
Wire Notes Line
	15500 9350 15500 6700
Wire Notes Line
	15500 6700 10300 6700
Text Notes 1400 6050 0    60   ~ 0
MICROCONTROLLER
Wire Notes Line
	1200 5850 1200 10800
Wire Notes Line
	1200 10800 8300 10800
Wire Notes Line
	8300 10800 8300 5850
Wire Notes Line
	8300 5850 1200 5850
Text GLabel 5400 7500 2    60   Input ~ 0
TO_BOILER
Text GLabel 5400 7650 2    60   Input ~ 0
FROM_BOILER
Wire Wire Line
	4900 7500 5400 7500
Wire Wire Line
	5400 7650 5150 7650
Wire Wire Line
	5150 7650 5150 7600
Wire Wire Line
	5150 7600 4900 7600
$Comp
L AVR-ISP-6 CON1
U 1 1 58523D00
P 6350 9950
F 0 "CON1" H 6245 10190 50  0000 C CNN
F 1 "AVR-ISP-6" H 6085 9720 50  0000 L BNN
F 2 "Pin_Headers:Pin_Header_Straight_2x03" V 5830 9990 50  0001 C CNN
F 3 "" H 6325 9950 50  0000 C CNN
	1    6350 9950
	1    0    0    -1  
$EndComp
Text GLabel 14250 5400 1    60   Input ~ 0
RXD
Text GLabel 14100 5400 1    60   Input ~ 0
TXD
$Comp
L VCC #PWR09
U 1 1 585241BA
P 14500 5400
F 0 "#PWR09" H 14500 5250 50  0001 C CNN
F 1 "VCC" H 14500 5550 50  0000 C CNN
F 2 "" H 14500 5400 50  0000 C CNN
F 3 "" H 14500 5400 50  0000 C CNN
	1    14500 5400
	1    0    0    -1  
$EndComp
$Comp
L GND #PWR010
U 1 1 58524207
P 14700 5350
F 0 "#PWR010" H 14700 5100 50  0001 C CNN
F 1 "GND" H 14700 5200 50  0000 C CNN
F 2 "" H 14700 5350 50  0000 C CNN
F 3 "" H 14700 5350 50  0000 C CNN
	1    14700 5350
	-1   0    0    1   
$EndComp
Text GLabel 5750 9850 0    60   Input ~ 0
MISO
Text GLabel 5750 9950 0    60   Input ~ 0
SCK
Text GLabel 5750 10050 0    60   Input ~ 0
RESET
Text GLabel 7000 9950 2    60   Input ~ 0
MOSI
$Comp
L VCC #PWR011
U 1 1 5852483B
P 7000 9750
F 0 "#PWR011" H 7000 9600 50  0001 C CNN
F 1 "VCC" H 7000 9900 50  0000 C CNN
F 2 "" H 7000 9750 50  0000 C CNN
F 3 "" H 7000 9750 50  0000 C CNN
	1    7000 9750
	1    0    0    -1  
$EndComp
$Comp
L GND #PWR012
U 1 1 58524964
P 7000 10200
F 0 "#PWR012" H 7000 9950 50  0001 C CNN
F 1 "GND" H 7000 10050 50  0000 C CNN
F 2 "" H 7000 10200 50  0000 C CNN
F 3 "" H 7000 10200 50  0000 C CNN
	1    7000 10200
	1    0    0    -1  
$EndComp
Wire Wire Line
	5800 3800 2200 3800
Wire Wire Line
	2400 3800 2400 2250
Wire Wire Line
	2400 2250 2600 2250
Connection ~ 3800 3800
Connection ~ 4250 3800
Connection ~ 4850 3800
Connection ~ 5400 3800
Wire Wire Line
	7000 9750 7000 9850
Wire Wire Line
	7000 9850 6450 9850
Wire Wire Line
	7000 10200 7000 10050
Wire Wire Line
	7000 10050 6450 10050
Wire Wire Line
	6450 9950 7000 9950
Wire Wire Line
	6200 9850 5750 9850
Wire Wire Line
	6200 9950 5750 9950
Wire Wire Line
	6200 10050 5750 10050
Text GLabel 5400 7050 2    60   Input ~ 0
MISO
Text GLabel 5400 6950 2    60   Input ~ 0
MOSI
Wire Wire Line
	5400 7050 4900 7050
Wire Wire Line
	4900 6950 5400 6950
Text GLabel 5400 7150 2    60   Input ~ 0
SCK
Wire Wire Line
	5400 7150 4900 7150
$Comp
L Crystal Y1
U 1 1 58525AF6
P 6550 7250
F 0 "Y1" H 6550 7400 50  0000 C CNN
F 1 "Crystal" H 6550 7100 50  0000 C CNN
F 2 "Crystals:Crystal_SMD_HC49-SD" H 6550 7250 50  0001 C CNN
F 3 "" H 6550 7250 50  0000 C CNN
	1    6550 7250
	1    0    0    -1  
$EndComp
Wire Wire Line
	4900 7250 6400 7250
Wire Wire Line
	4900 7350 6850 7350
Wire Wire Line
	6850 7250 6850 7500
Wire Wire Line
	6850 7250 6700 7250
$Comp
L C C2
U 1 1 58525F2C
P 6850 7650
F 0 "C2" H 6875 7750 50  0000 L CNN
F 1 "22pF" H 6875 7550 50  0000 L CNN
F 2 "Capacitors_SMD:C_0805_HandSoldering" H 6888 7500 50  0001 C CNN
F 3 "" H 6850 7650 50  0000 C CNN
	1    6850 7650
	1    0    0    -1  
$EndComp
$Comp
L C C1
U 1 1 585262B3
P 6300 7650
F 0 "C1" H 6325 7750 50  0000 L CNN
F 1 "22pF" H 6325 7550 50  0000 L CNN
F 2 "Capacitors_SMD:C_0805_HandSoldering" H 6338 7500 50  0001 C CNN
F 3 "" H 6300 7650 50  0000 C CNN
	1    6300 7650
	1    0    0    -1  
$EndComp
Connection ~ 6850 7350
Wire Wire Line
	6300 7500 6300 7250
Connection ~ 6300 7250
$Comp
L GND #PWR013
U 1 1 5852649E
P 6300 7900
F 0 "#PWR013" H 6300 7650 50  0001 C CNN
F 1 "GND" H 6300 7750 50  0000 C CNN
F 2 "" H 6300 7900 50  0000 C CNN
F 3 "" H 6300 7900 50  0000 C CNN
	1    6300 7900
	1    0    0    -1  
$EndComp
$Comp
L GND #PWR014
U 1 1 5852653F
P 6850 7900
F 0 "#PWR014" H 6850 7650 50  0001 C CNN
F 1 "GND" H 6850 7750 50  0000 C CNN
F 2 "" H 6850 7900 50  0000 C CNN
F 3 "" H 6850 7900 50  0000 C CNN
	1    6850 7900
	1    0    0    -1  
$EndComp
Wire Wire Line
	6850 7900 6850 7800
Wire Wire Line
	6300 7800 6300 7900
$Comp
L VCC #PWR015
U 1 1 58526BDF
P 2750 6500
F 0 "#PWR015" H 2750 6350 50  0001 C CNN
F 1 "VCC" H 2750 6650 50  0000 C CNN
F 2 "" H 2750 6500 50  0000 C CNN
F 3 "" H 2750 6500 50  0000 C CNN
	1    2750 6500
	1    0    0    -1  
$EndComp
Wire Wire Line
	2750 6500 2750 6950
Wire Wire Line
	2750 6650 3000 6650
Wire Wire Line
	2750 6750 3000 6750
Connection ~ 2750 6650
Wire Wire Line
	2750 6950 3000 6950
Connection ~ 2750 6750
$Comp
L GND #PWR016
U 1 1 5852705C
P 2800 9100
F 0 "#PWR016" H 2800 8850 50  0001 C CNN
F 1 "GND" H 2800 8950 50  0000 C CNN
F 2 "" H 2800 9100 50  0000 C CNN
F 3 "" H 2800 9100 50  0000 C CNN
	1    2800 9100
	1    0    0    -1  
$EndComp
Wire Wire Line
	3000 8750 2800 8750
Wire Wire Line
	2800 8750 2800 9100
Wire Wire Line
	3000 8850 2800 8850
Connection ~ 2800 8850
Wire Wire Line
	3000 8950 2800 8950
Connection ~ 2800 8950
Text GLabel 12000 7550 0    60   Input ~ 0
USB_D+
Text GLabel 12000 7650 0    60   Input ~ 0
USB_D-
$Comp
L VCC #PWR017
U 1 1 58528B1B
P 11200 5350
F 0 "#PWR017" H 11200 5200 50  0001 C CNN
F 1 "VCC" H 11200 5500 50  0000 C CNN
F 2 "" H 11200 5350 50  0000 C CNN
F 3 "" H 11200 5350 50  0000 C CNN
	1    11200 5350
	1    0    0    -1  
$EndComp
Wire Wire Line
	11200 5350 11200 5400
Wire Wire Line
	11200 5400 11400 5400
Wire Wire Line
	11200 5850 11200 5800
Wire Wire Line
	11200 5800 11400 5800
Text GLabel 11200 5500 0    60   Input ~ 0
USB_D-
Text GLabel 11200 5600 0    60   Input ~ 0
USB_D+
Wire Wire Line
	11200 5500 11400 5500
Wire Wire Line
	11200 5600 11400 5600
Wire Notes Line
	15500 4700 15500 6250
Wire Notes Line
	15500 4700 10300 4700
Wire Notes Line
	10300 4700 10300 6250
Wire Notes Line
	10300 6250 15500 6250
Text Notes 10500 5000 0    60   ~ 0
Connections
$Comp
L VCC #PWR018
U 1 1 5852A32E
P 12800 3000
F 0 "#PWR018" H 12800 2850 50  0001 C CNN
F 1 "VCC" H 12800 3150 50  0000 C CNN
F 2 "" H 12800 3000 50  0000 C CNN
F 3 "" H 12800 3000 50  0000 C CNN
	1    12800 3000
	1    0    0    -1  
$EndComp
$Comp
L VCC #PWR019
U 1 1 5852A401
P 13150 3000
F 0 "#PWR019" H 13150 2850 50  0001 C CNN
F 1 "VCC" H 13150 3150 50  0000 C CNN
F 2 "" H 13150 3000 50  0000 C CNN
F 3 "" H 13150 3000 50  0000 C CNN
	1    13150 3000
	1    0    0    -1  
$EndComp
Wire Notes Line
	14350 2400 11750 2400
Wire Notes Line
	11750 2400 11750 4250
Wire Notes Line
	11750 4250 14350 4250
Wire Notes Line
	14350 4250 14350 2400
Text Notes 11950 2600 0    60   ~ 0
Power
Wire Wire Line
	2900 2850 2200 2850
Wire Wire Line
	2200 2850 2200 1650
Wire Wire Line
	2200 1650 2000 1650
Wire Wire Line
	2000 1750 2900 1750
Wire Wire Line
	2900 1750 2900 1950
$Comp
L CH340G U3
U 1 1 588CE3AA
P 13000 7500
F 0 "U3" H 13000 7000 60  0000 C CNN
F 1 "CH340G" H 13000 8000 60  0000 C CNN
F 2 "Housings_SOIC:SOIC-16_3.9x9.9mm_Pitch1.27mm" H 13200 6850 60  0001 C CNN
F 3 "" H 13200 6850 60  0000 C CNN
	1    13000 7500
	1    0    0    -1  
$EndComp
Wire Wire Line
	13750 7000 13750 7150
Wire Wire Line
	13750 7150 13500 7150
Wire Wire Line
	11350 7250 11350 7150
Wire Wire Line
	11350 7150 12500 7150
Wire Wire Line
	12150 7250 12500 7250
Wire Wire Line
	12500 7350 12150 7350
Wire Wire Line
	12000 7550 12500 7550
Wire Wire Line
	12500 7650 12000 7650
Wire Wire Line
	14450 7450 14200 7450
Wire Wire Line
	13900 7450 13500 7450
$Comp
L Crystal Y2
U 1 1 588CF1E8
P 12000 8200
F 0 "Y2" H 12000 8350 50  0000 C CNN
F 1 "Crystal" H 12000 8050 50  0000 C CNN
F 2 "Crystals:Crystal_SMD_HC49-SD" H 12000 8200 50  0001 C CNN
F 3 "" H 12000 8200 50  0000 C CNN
	1    12000 8200
	1    0    0    -1  
$EndComp
Wire Wire Line
	12500 7750 11700 7750
Wire Wire Line
	11700 7750 11700 8500
Wire Wire Line
	11700 8200 11850 8200
Wire Wire Line
	12500 7850 12350 7850
Wire Wire Line
	12350 7850 12350 8500
Wire Wire Line
	12350 8200 12150 8200
$Comp
L C C5
U 1 1 588CF651
P 11700 8650
F 0 "C5" H 11725 8750 50  0000 L CNN
F 1 "22pF" H 11725 8550 50  0000 L CNN
F 2 "Capacitors_SMD:C_0805_HandSoldering" H 11738 8500 50  0001 C CNN
F 3 "" H 11700 8650 50  0000 C CNN
	1    11700 8650
	1    0    0    -1  
$EndComp
$Comp
L C C7
U 1 1 588CF863
P 12350 8650
F 0 "C7" H 12375 8750 50  0000 L CNN
F 1 "22pF" H 12375 8550 50  0000 L CNN
F 2 "Capacitors_SMD:C_0805_HandSoldering" H 12388 8500 50  0001 C CNN
F 3 "" H 12350 8650 50  0000 C CNN
	1    12350 8650
	1    0    0    -1  
$EndComp
$Comp
L GND #PWR020
U 1 1 588CF8E0
P 12000 9050
F 0 "#PWR020" H 12000 8800 50  0001 C CNN
F 1 "GND" H 12000 8900 50  0000 C CNN
F 2 "" H 12000 9050 50  0000 C CNN
F 3 "" H 12000 9050 50  0000 C CNN
	1    12000 9050
	1    0    0    -1  
$EndComp
Connection ~ 12350 8200
Connection ~ 11700 8200
Wire Wire Line
	11700 8800 11700 8950
Wire Wire Line
	11700 8950 12350 8950
Wire Wire Line
	12350 8950 12350 8800
Wire Wire Line
	12000 9050 12000 8950
Connection ~ 12000 8950
Text GLabel 13950 5400 1    60   Input ~ 0
USB_D-
Text GLabel 13800 5400 1    60   Input ~ 0
USB_D+
Text GLabel 13650 5400 1    60   Input ~ 0
RESET
Text GLabel 13500 5400 1    60   Input ~ 0
TO_BOILER
Text GLabel 13350 5400 1    60   Input ~ 0
FROM_BOILER
$Comp
L TEST TP6
U 1 1 588D0601
P 13350 5650
F 0 "TP6" H 13350 5950 50  0000 C BNN
F 1 "OT OUT" V 13400 5650 50  0000 C CNN
F 2 "Measurement_Points:Measurement_Point_Square-SMD-Pad_Small" H 13350 5650 50  0001 C CNN
F 3 "" H 13350 5650 50  0000 C CNN
	1    13350 5650
	-1   0    0    1   
$EndComp
$Comp
L TEST TP7
U 1 1 588D06BD
P 13500 5650
F 0 "TP7" H 13500 5950 50  0000 C BNN
F 1 "OT IN" V 13550 5650 50  0000 C CNN
F 2 "Measurement_Points:Measurement_Point_Square-SMD-Pad_Small" H 13500 5650 50  0001 C CNN
F 3 "" H 13500 5650 50  0000 C CNN
	1    13500 5650
	-1   0    0    1   
$EndComp
$Comp
L TEST TP8
U 1 1 588D0723
P 13650 5650
F 0 "TP8" H 13650 5950 50  0000 C BNN
F 1 "RST" V 13700 5700 50  0000 C CNN
F 2 "Measurement_Points:Measurement_Point_Square-SMD-Pad_Small" H 13650 5650 50  0001 C CNN
F 3 "" H 13650 5650 50  0000 C CNN
	1    13650 5650
	-1   0    0    1   
$EndComp
$Comp
L TEST TP9
U 1 1 588D0790
P 13800 5650
F 0 "TP9" H 13800 5950 50  0000 C BNN
F 1 "D+" V 13850 5700 50  0000 C CNN
F 2 "Measurement_Points:Measurement_Point_Square-SMD-Pad_Small" H 13800 5650 50  0001 C CNN
F 3 "" H 13800 5650 50  0000 C CNN
	1    13800 5650
	-1   0    0    1   
$EndComp
$Comp
L TEST TP10
U 1 1 588D0800
P 13950 5650
F 0 "TP10" H 13950 5950 50  0000 C BNN
F 1 "D-" V 14000 5700 50  0000 C CNN
F 2 "Measurement_Points:Measurement_Point_Square-SMD-Pad_Small" H 13950 5650 50  0001 C CNN
F 3 "" H 13950 5650 50  0000 C CNN
	1    13950 5650
	-1   0    0    1   
$EndComp
$Comp
L TEST TP11
U 1 1 588D086F
P 14100 5650
F 0 "TP11" H 14100 5950 50  0000 C BNN
F 1 "TX" V 14150 5700 50  0000 C CNN
F 2 "Measurement_Points:Measurement_Point_Square-SMD-Pad_Small" H 14100 5650 50  0001 C CNN
F 3 "" H 14100 5650 50  0000 C CNN
	1    14100 5650
	-1   0    0    1   
$EndComp
$Comp
L TEST TP12
U 1 1 588D08E9
P 14250 5650
F 0 "TP12" H 14250 5950 50  0000 C BNN
F 1 "RX" V 14300 5700 50  0000 C CNN
F 2 "Measurement_Points:Measurement_Point_Square-SMD-Pad_Small" H 14250 5650 50  0001 C CNN
F 3 "" H 14250 5650 50  0000 C CNN
	1    14250 5650
	-1   0    0    1   
$EndComp
$Comp
L TEST TP13
U 1 1 588D0A18
P 14500 5650
F 0 "TP13" H 14500 5950 50  0000 C BNN
F 1 "Vcc" V 14550 5700 50  0000 C CNN
F 2 "Measurement_Points:Measurement_Point_Square-SMD-Pad_Small" H 14500 5650 50  0001 C CNN
F 3 "" H 14500 5650 50  0000 C CNN
	1    14500 5650
	-1   0    0    1   
$EndComp
$Comp
L TEST TP14
U 1 1 588D0A98
P 14700 5650
F 0 "TP14" H 14700 5950 50  0000 C BNN
F 1 "Gnd" V 14750 5700 50  0000 C CNN
F 2 "Measurement_Points:Measurement_Point_Square-SMD-Pad_Small" H 14700 5650 50  0001 C CNN
F 3 "" H 14700 5650 50  0000 C CNN
	1    14700 5650
	-1   0    0    1   
$EndComp
Wire Wire Line
	14700 5350 14700 5650
Wire Wire Line
	14500 5400 14500 5650
Wire Wire Line
	14250 5400 14250 5650
Wire Wire Line
	14100 5400 14100 5650
Wire Wire Line
	13950 5400 13950 5650
Wire Wire Line
	13800 5400 13800 5650
Wire Wire Line
	13650 5400 13650 5650
Wire Wire Line
	13500 5400 13500 5650
Wire Wire Line
	13350 5400 13350 5650
$Comp
L TEST TP3
U 1 1 588D13FE
P 4000 1500
F 0 "TP3" H 4000 1800 50  0000 C BNN
F 1 "OT+" H 4000 1750 50  0000 C CNN
F 2 "Measurement_Points:Measurement_Point_Square-SMD-Pad_Small" H 4000 1500 50  0001 C CNN
F 3 "" H 4000 1500 50  0000 C CNN
	1    4000 1500
	1    0    0    -1  
$EndComp
$Comp
L TEST TP2
U 1 1 588D16D2
P 3800 2250
F 0 "TP2" H 3800 2550 50  0000 C BNN
F 1 "C" H 3800 2500 50  0000 C CNN
F 2 "Measurement_Points:Measurement_Point_Square-SMD-Pad_Small" H 3800 2250 50  0001 C CNN
F 3 "" H 3800 2250 50  0000 C CNN
	1    3800 2250
	1    0    0    -1  
$EndComp
$Comp
L TEST TP1
U 1 1 588D17EF
P 2200 3700
F 0 "TP1" H 2200 4000 50  0000 C BNN
F 1 "OT-" H 2200 3950 50  0000 C CNN
F 2 "Measurement_Points:Measurement_Point_Square-SMD-Pad_Small" H 2200 3700 50  0001 C CNN
F 3 "" H 2200 3700 50  0000 C CNN
	1    2200 3700
	1    0    0    -1  
$EndComp
$Comp
L TEST TP5
U 1 1 588D18F1
P 4850 1500
F 0 "TP5" H 4850 1800 50  0000 C BNN
F 1 "B" H 4850 1750 50  0000 C CNN
F 2 "Measurement_Points:Measurement_Point_Square-SMD-Pad_Small" H 4850 1500 50  0001 C CNN
F 3 "" H 4850 1500 50  0000 C CNN
	1    4850 1500
	1    0    0    -1  
$EndComp
$Comp
L TEST TP4
U 1 1 588D1D4F
P 4550 2850
F 0 "TP4" H 4550 3150 50  0000 C BNN
F 1 "L" H 4550 3100 50  0000 C CNN
F 2 "Measurement_Points:Measurement_Point_Square-SMD-Pad_Small" H 4550 2850 50  0001 C CNN
F 3 "" H 4550 2850 50  0000 C CNN
	1    4550 2850
	1    0    0    -1  
$EndComp
Connection ~ 4850 1650
Wire Wire Line
	4000 1500 4000 1650
Connection ~ 4000 1650
Connection ~ 3800 2400
Wire Wire Line
	4550 2850 4550 2950
Connection ~ 4550 2950
Wire Wire Line
	2200 3800 2200 3700
Connection ~ 2400 3800
$Comp
L PC827 U1
U 1 1 588D3BD2
P 6300 2000
F 0 "U1" H 6100 2200 50  0000 L CNN
F 1 "PC827" H 6300 2200 50  0000 L CNN
F 2 "Housings_DIP:DIP-8_W8.89mm_SMDSocket_LongPads" H 6100 1800 50  0000 L CIN
F 3 "" H 6300 2000 50  0000 L CNN
	1    6300 2000
	-1   0    0    1   
$EndComp
$Comp
L PC827 U1
U 2 1 588D3C71
P 6300 3050
F 0 "U1" H 6100 3250 50  0000 L CNN
F 1 "PC827" H 6300 3250 50  0000 L CNN
F 2 "Housings_DIP:DIP-8_W8.89mm_SMDSocket_LongPads" H 6100 2850 50  0000 L CIN
F 3 "" H 6300 3050 50  0000 L CNN
	2    6300 3050
	1    0    0    -1  
$EndComp
$Comp
L BC858 Q1
U 1 1 588D44C7
P 4350 2100
F 0 "Q1" H 4550 2175 50  0000 L CNN
F 1 "BC858" H 4550 2100 50  0000 L CNN
F 2 "TO_SOT_Packages_SMD:TSOT-23_HandSoldering" H 3750 2300 50  0000 L CIN
F 3 "" H 4350 2100 50  0000 L CNN
	1    4350 2100
	-1   0    0    1   
$EndComp
$Comp
L D_Bridge_+A-A D1
U 1 1 588D5E12
P 2900 2250
F 0 "D1" H 2950 2525 50  0000 L CNN
F 1 "D_Bridge_+A-A" H 2950 2450 50  0000 L CNN
F 2 "TO_SOT_Packages_SMD:SOT-143" H 2900 2250 50  0001 C CNN
F 3 "" H 2900 2250 50  0000 C CNN
	1    2900 2250
	1    0    0    -1  
$EndComp
$EndSCHEMATC
