G04 #@! TF.FileFunction,Profile,NP*
%FSLAX46Y46*%
G04 Gerber Fmt 4.6, Leading zero omitted, Abs format (unit mm)*
G04 Created by KiCad (PCBNEW 4.0.5) date Sat Feb 11 22:43:25 2017*
%MOMM*%
%LPD*%
G01*
G04 APERTURE LIST*
%ADD10C,0.100000*%
%ADD11C,0.150000*%
G04 APERTURE END LIST*
D10*
D11*
X162560000Y-110490000D02*
X219075000Y-110490000D01*
X219075000Y-85725000D02*
X162560000Y-85725000D01*
X161290000Y-109220000D02*
G75*
G03X162560000Y-110490000I1270000J0D01*
G01*
X162560000Y-85725000D02*
G75*
G03X161290000Y-86995000I0J-1270000D01*
G01*
X161290000Y-109220000D02*
X161290000Y-86995000D01*
X220345000Y-86995000D02*
X220345000Y-109220000D01*
X220345000Y-86995000D02*
G75*
G03X219075000Y-85725000I-1270000J0D01*
G01*
X219075000Y-110490000D02*
G75*
G03X220345000Y-109220000I0J1270000D01*
G01*
M02*
